Biplots — biplots • bayesammi
…
library(ggplot2)

output_05 <- biplots(model = fm1, plot_stable = TRUE, plot_unstable = TRUE, pb = 0.05)
output_05
#> $contorns
#> # A tibble: 9,605 × 9
#>    level      x     y prob  n_val byplot         ID stable  name
#>    <dbl>  <dbl> <dbl> <chr> <int> <chr>       <int> <lgl>  <int>
#>  1 0.269 -0.617 0.207 5%        1 Environment     1 TRUE       1
#>  2 0.269 -0.620 0.219 5%        2 Environment     1 TRUE       1
#>  3 0.269 -0.623 0.235 5%        3 Environment     1 TRUE       1
#>  4 0.269 -0.625 0.250 5%        4 Environment     1 TRUE       1
#>  5 0.269 -0.627 0.266 5%        5 Environment     1 TRUE       1
#>  6 0.269 -0.628 0.282 5%        6 Environment     1 TRUE       1
#>  7 0.269 -0.629 0.297 5%        7 Environment     1 TRUE       1
#>  8 0.269 -0.628 0.313 5%        8 Environment     1 TRUE       1
#>  9 0.269 -0.627 0.328 5%        9 Environment     1 TRUE       1
#> 10 0.269 -0.625 0.344 5%       10 Environment     1 TRUE       1
#> # ℹ 9,595 more rows
#> 
#> $biplot_data
#> # A tibble: 29 × 6
#> # Groups:   byplot [2]
#>    byplot         ID        x       y stable  name
#>    <chr>       <int>    <dbl>   <dbl> <lgl>  <int>
#>  1 Environment     1  0.0247   0.0543 TRUE       1
#>  2 Environment     2  0.0134  -0.0241 TRUE       2
#>  3 Environment     3  0.0959  -0.0871 TRUE       3
#>  4 Environment     4 -0.0779  -0.0310 TRUE       4
#>  5 Environment     5 -0.197   -0.0969 TRUE       5
#>  6 Environment     6 -0.0144   0.0157 TRUE       6
#>  7 Environment     7 -0.0578   0.0648 TRUE       7
#>  8 Environment     8 -0.0196  -0.0332 TRUE       8
#>  9 Environment     9 -0.0427  -0.0715 TRUE       9
#> 10 Environment    10  0.00518 -0.0940 TRUE      10
#> # ℹ 19 more rows
…
#> 

output_95 <- biplots(model = fm1, plot_stable = TRUE, plot_unstable = TRUE, pb = 0.95)
output_95
#> $contorns
#> # A tibble: 1,391 × 9
#>    level      x     y prob  n_val byplot         ID stable  name
#>    <dbl>  <dbl> <dbl> <chr> <int> <chr>       <int> <lgl>  <int>
#>  1  1.59 -0.277 0.198 95%       1 Environment     1 FALSE      1
#>  2  1.59 -0.277 0.204 95%       2 Environment     1 FALSE      1
#>  3  1.59 -0.277 0.204 95%       3 Environment     1 FALSE      1
#>  4  1.59 -0.271 0.219 95%       4 Environment     1 FALSE      1
#>  5  1.59 -0.259 0.232 95%       5 Environment     1 FALSE      1
#>  6  1.59 -0.254 0.235 95%       6 Environment     1 FALSE      1
#>  7  1.59 -0.241 0.240 95%       7 Environment     1 FALSE      1
#>  8  1.59 -0.223 0.241 95%       8 Environment     1 FALSE      1
#>  9  1.59 -0.206 0.239 95%       9 Environment     1 FALSE      1
#> 10  1.59 -0.191 0.235 95%      10 Environment     1 FALSE      1
#> # ℹ 1,381 more rows
#> 
#> $biplot_data
#> # A tibble: 29 × 6
#> # Groups:   byplot [2]
#>    byplot         ID       x       y stable  name
#>    <chr>       <int>   <dbl>   <dbl> <lgl>  <int>
#>  1 Environment     1 -0.206   0.180  FALSE      1
#>  2 Environment     2  0.0351  0.303  FALSE      2
#>  3 Environment     3  0.383  -0.252  FALSE      3
#>  4 Environment     4 -0.232   0.261  FALSE      4
#>  5 Environment     5 -0.368  -0.253  FALSE      5
#>  6 Environment     6 -0.180  -0.343  FALSE      6
#>  7 Environment     7 -0.0961  0.151  FALSE      7
#>  8 Environment     8 -0.407   0.279  FALSE      8
#>  9 Environment     9  0.0253  0.0315 TRUE       9
#> 10 Environment    10 -0.0986 -0.336  FALSE     10
#> # ℹ 19 more rows
…
